Run MaAsLin2 Analysis Quietly — run_maaslin2 • microfunk
…
    Examples

# Read HUMAnN3 & MaAsLin2 Analysis
da_result <- read_humann(
  file_path = system.file("extdata", "reduced_genefam_cpm_kegg.tsv", package = "microfunk"),
  metadata = system.file("extdata", "reduced_meta.csv", package = "microfunk")
) %>% run_maaslin2(fixed_effects = "ARM")

da_result
#> # A tibble: 3,806 × 11
#>    feature metadata da_method coefficient log2FC stderr lfc_stderr p_value
#>    <chr>   <chr>    <chr>           <dbl> <chr>   <dbl> <chr>        <dbl>
#>  1 K03592  ARM      maaslin2       -0.389 -           0 -                0
#>  2 K03788  ARM      maaslin2       -0.125 -           0 -                0
#>  3 K05708  ARM      maaslin2       -0.189 -           0 -                0
#>  4 K07270  ARM      maaslin2       -0.567 -           0 -                0
#>  5 K08678  ARM      maaslin2       -0.793 -           0 -                0
#>  6 K13652  ARM      maaslin2       -1.08  -           0 -                0
#>  7 K16950  ARM      maaslin2       -1.71  -           0 -                0
#>  8 K20861  ARM      maaslin2       -0.272 -           0 -                0
#>  9 K21055  ARM      maaslin2       -0.588 -           0 -                0
#> 10 K21065  ARM      maaslin2       -0.578 -           0 -                0
#> # ℹ 3,796 more rows
#> # ℹ 3 more variables: q_value <dbl>, padj_value <chr>, signif <lgl>
…
